<?xml version="1.0" standalone="no"?>
<!DOCTYPE svg PUBLIC "-//W3C//DTD SVG 1.1//EN" "http://www.w3.org/Graphics/SVG/1.1/DTD/svg11.dtd">
<svg xmlns="http://www.w3.org/2000/svg">
<metadata>Copyright (C) 2014 by original authors @ fontello.com</metadata>
<defs>
<font id="fontello" horiz-adv-x="1000" >
<font-face font-family="fontello" font-weight="400" font-stretch="normal" units-per-em="1000" ascent="850" descent="-150" />
<missing-glyph horiz-adv-x="1000" />
<glyph glyph-name="attention" unicode="&#xe808;" d="m957-24q10-16 0-34-10-16-30-16l-892 0q-18 0-28 16-13 18-2 34l446 782q8 18 30 18t30-18z m-420 50l0 100-110 0 0-100 110 0z m0 174l0 300-110 0 0-300 110 0z" horiz-adv-x="962" />
<glyph glyph-name="cw" unicode="&#xe804;" d="m408 760q168 0 287-116t123-282l122 0-184-206-184 206 144 0q-4 124-94 210t-214 86q-126 0-216-90t-90-218q0-126 90-216t216-90q104 0 182 60l70-76q-110-88-252-88-168 0-288 120t-120 290 120 290 288 120z" horiz-adv-x="940" />
<glyph glyph-name="users-outline" unicode="&#xe806;" d="m599 273q-108 0-184 76t-76 184 76 183 184 77 184-77 77-183-77-184-184-76z m0 416q-65 0-111-46t-45-110 45-111 111-46 110 46 46 111-46 110-110 46z m416-469q-55 0-92 38t-38 92 38 92 92 38 93-38 38-92-38-92-93-38z m0 209q-31 0-54-23t-23-56q0-31 22-54t55-23 56 23 23 54-23 55-56 24z m0-240q80 0 131-34t52-79q0-22-53-40t-130-17q-42 0-82 6 0-2 0-7t1-7q0-41-96-72t-239-31q-150 0-242 31t-92 72q0 3 1 8t0 7q-50-7-83-7-82 0-132 17t-51 40q0 45 50 79t133 34q98 0 151-50 99 81 265 81t265-81q52 50 151 50z m-832-118q60 0 102 12 5 7 13 17-38 38-115 38-98 0-127-49 44-18 127-18z m416-60q131 0 216 30-25 30-82 53t-134 22q-81 0-138-22t-80-53q84-30 218-30z m416 60q84 0 126 19-12 19-45 33t-81 15q-76 0-115-37 5-6 13-18 40-12 102-12z m-832 149q-55 0-93 38t-37 92 38 92 92 38 91-38 39-92-38-92-92-38z m0 209q-33 0-56-24t-23-55 23-54 56-23 55 23 22 54q0 33-23 56t-54 23z" horiz-adv-x="1198" />
<glyph glyph-name="th" unicode="&#xe805;" d="m0-15q0 130 130 130t130-130-130-130-130 130z m0 365q0 130 130 130t130-130-130-130-130 130z m0 365q0 130 130 130t130-130-130-130-130 130z m365-730q0 130 130 130t130-130-130-130-130 130z m0 365q0 130 130 130t130-130-130-130-130 130z m0 365q0 130 130 130t130-130-130-130-130 130z m364-730q0 130 131 130 130 0 130-130t-130-130q-131 0-131 130z m0 365q0 130 131 130 130 0 130-130t-130-130q-131 0-131 130z m0 365q0 130 131 130 130 0 130-130t-130-130q-131 0-131 130z" horiz-adv-x="990" />
<glyph glyph-name="twitter" unicode="&#xe803;" d="m0-37q30-3 60-3 176 0 314 108-82 1-147 50t-89 125q20-4 47-4 35 0 67 9-88 17-145 87t-58 160l0 3q53-30 115-31-52 34-82 90t-31 120q0 68 35 127 94-117 230-186t290-78q-7 33-7 58 0 104 74 178t179 74q109 0 184-80 87 18 160 62-28-91-110-140 73 9 144 40-48-75-125-131l0-33q0-101-29-202t-90-194-145-165-201-115-253-42q-209 0-387 113z" horiz-adv-x="1230" />
<glyph glyph-name="facebook" unicode="&#xe802;" d="m0 313l0 191 154 0 0 96q0 104 68 177t163 73l153 0 0-191-153 0q-15 0-27-16t-12-41l0-98 192 0 0-191-192 0 0-463-192 0 0 463-154 0z" horiz-adv-x="538" />
<glyph glyph-name="basket" unicode="&#xe800;" d="m2 791q8 20 27 29t38 4l150-48q32-10 35-43l10-84 686-77q23-5 35-22t10-38l-43-238q-8-43-49-43l-608 0-11-69 578 0q21 0 36-14t15-36q-2-22-17-37t-34-14l-641 0q-25 2-39 19t-12 41l28 149-41 418-119 39q-45 17-34 64z m217-839q0 32 24 56t55 23 56-23 23-56-23-55-56-24-55 24-24 55z m469 0q0 32 23 56t56 23 56-23 23-56-23-55-56-24-56 24-23 55z" horiz-adv-x="993" />
<glyph glyph-name="clock-circled" unicode="&#xe807;" d="m0 350q0 207 147 354t353 146 354-146 146-354-146-354-354-146-353 146-147 354z m268 90l236-236 338 337-90 90-248-248-147 147-9-10-71-70z" horiz-adv-x="1000" />
<glyph glyph-name="search" unicode="&#xe801;" d="m0-41q0 47 33 80l260 260q-43 82-43 176 0 154 109 265t266 110 266-110 109-266-109-265-266-109q-94 0-176 43l-260-260q-33-33-80-33-45 0-77 32t-32 77z m55 1q0-22 16-39t39-16 40 17l252 252q-45 33-78 78l-252-252q-17-17-17-40z m258 515q0-129 91-221t221-91 221 91 91 221-91 221-221 91-221-91-91-221z m93 0q0 90 65 154t154 65q16 0 16-16t-16-16q-78 0-133-54t-54-133q0-16-16-16t-16 16z" horiz-adv-x="1000" />
</font>
</defs>
</svg>